<?xml version="1.0" encoding="utf-8"?>
<!-- Generator: Adobe Illustrator 16.0.0, SVG Export Plug-In . SVG Version: 6.00 Build 0)  -->
<!DOCTYPE svg PUBLIC "-//W3C//DTD SVG 1.1//EN" "http://www.w3.org/Graphics/SVG/1.1/DTD/svg11.dtd">
<svg version="1.1" id="Layer_2" xmlns="http://www.w3.org/2000/svg" xmlns:xlink="http://www.w3.org/1999/xlink" x="0px" y="0px"
	 width="400px" height="400px" viewBox="0 0 400 400" enable-background="new 0 0 400 400" xml:space="preserve">
<g>
	<path fill="#FFFFFF" d="M93.519,366.834H305.22c11.646,0,21.149-9.505,21.149-21.185V123.408c0-8.674-4.458-19.422-10.574-25.539
		l-59.129-59.128c-6.15-6.116-16.864-10.575-25.538-10.575H93.519c-11.68,0-21.184,9.469-21.184,21.149v296.333
		C72.335,357.329,81.839,366.834,93.519,366.834L93.519,366.834z M231.128,49.316v52.908c0,11.681,9.503,21.184,21.184,21.184
		h52.908v222.241H93.519l0,0V49.316H231.128z M290.222,102.258h-37.944V64.314L290.222,102.258z"/>
</g>
<rect x="111" y="77" fill="#FFFFFF" width="104" height="25"/>
<rect x="111" y="148" fill="#FFFFFF" width="73" height="21"/>
<rect x="215" y="148" fill="#FFFFFF" width="73" height="21"/>
<rect x="111" y="195" fill="#FFFFFF" width="73" height="21"/>
<rect x="215" y="195" fill="#FFFFFF" width="73" height="21"/>
<rect x="111" y="243" fill="#FFFFFF" width="73" height="21"/>
<rect x="215" y="243" fill="#FFFFFF" width="73" height="21"/>
<rect x="111" y="294" fill="#FFFFFF" width="73" height="21"/>
</svg>
