<?xml version="1.0" encoding="utf-8"?>
<!-- Generator: Adobe Illustrator 16.0.0, SVG Export Plug-In . SVG Version: 6.00 Build 0)  -->
<!DOCTYPE svg PUBLIC "-//W3C//DTD SVG 1.1//EN" "http://www.w3.org/Graphics/SVG/1.1/DTD/svg11.dtd">
<svg version="1.1" id="Layer_2" xmlns="http://www.w3.org/2000/svg" xmlns:xlink="http://www.w3.org/1999/xlink" x="0px" y="0px"
	 width="400px" height="400px" viewBox="0 0 400 400" enable-background="new 0 0 400 400" xml:space="preserve">
<path fill="#FFFFFF" d="M355,101.5c0,7.456-6.044,13.5-13.5,13.5h-181c-7.456,0-13.5-6.044-13.5-13.5l0,0
	c0-7.456,6.044-13.5,13.5-13.5h181C348.956,88,355,94.044,355,101.5L355,101.5z"/>
<path fill="#FFFFFF" d="M355,199.5c0,7.456-6.044,13.5-13.5,13.5h-181c-7.456,0-13.5-6.044-13.5-13.5l0,0
	c0-7.456,6.044-13.5,13.5-13.5h181C348.956,186,355,192.044,355,199.5L355,199.5z"/>
<path fill="#FFFFFF" d="M355,295.5c0,7.456-6.044,13.5-13.5,13.5h-181c-7.456,0-13.5-6.044-13.5-13.5l0,0
	c0-7.456,6.044-13.5,13.5-13.5h181C348.956,282,355,288.044,355,295.5L355,295.5z"/>
<path fill="#FFFFFF" d="M79,65.167c-20.619,0-37.333,16.715-37.333,37.333S58.381,139.833,79,139.833s37.333-16.715,37.333-37.333
	S99.619,65.167,79,65.167z M79,121.853c-10.688,0-19.353-8.665-19.353-19.353S68.312,83.147,79,83.147
	c10.688,0,19.353,8.665,19.353,19.353S89.688,121.853,79,121.853z"/>
<path fill="#FFFFFF" d="M79,162.167c-20.619,0-37.333,16.715-37.333,37.333S58.381,236.834,79,236.834s37.333-16.715,37.333-37.333
	S99.619,162.167,79,162.167z M79,218.854c-10.688,0-19.353-8.665-19.353-19.353S68.312,180.147,79,180.147
	c10.688,0,19.353,8.665,19.353,19.353S89.688,218.854,79,218.854z"/>
<path fill="#FFFFFF" d="M79,258.166c-20.619,0-37.333,16.715-37.333,37.334c0,20.618,16.715,37.333,37.333,37.333
	s37.333-16.715,37.333-37.333C116.333,274.881,99.619,258.166,79,258.166z M79,314.853c-10.688,0-19.353-8.665-19.353-19.353
	c0-10.688,8.665-19.354,19.353-19.354c10.688,0,19.353,8.665,19.353,19.354C98.353,306.188,89.688,314.853,79,314.853z"/>
</svg>
